<?xml version="1.0" encoding="UTF-8" standalone="no"?>
<svg xmlns:xlink="http://www.w3.org/1999/xlink" height="32.0px" width="31.0px" xmlns="http://www.w3.org/2000/svg">
  <g transform="matrix(1.0, 0.0, 0.0, 1.0, 0.0, 0.0)">
    <path d="M31.0 5.0 L31.0 29.0 Q31.0 30.2 30.15 31.1 29.25 32.0 28.0 32.0 L4.0 32.0 Q2.75 32.0 1.85 31.1 0.95 30.2 1.0 29.0 L1.0 5.0 Q0.95 3.75 1.85 2.85 2.75 1.95 4.0 2.0 L28.0 2.0 Q29.25 1.95 30.15 2.85 31.0 3.75 31.0 5.0" fill="#5d2f1c" fill-rule="evenodd" stroke="none"/>
    <path d="M27.0 0.0 Q28.25 -0.05 29.15 0.85 30.0 1.75 30.0 3.0 L30.0 27.0 Q30.0 28.2 29.15 29.1 28.25 30.0 27.0 30.0 L3.0 30.0 Q1.75 30.0 0.85 29.1 -0.05 28.2 0.0 27.0 L0.0 3.0 Q-0.05 1.75 0.85 0.85 1.75 -0.05 3.0 0.0 L27.0 0.0" fill="#d18858" fill-rule="evenodd" stroke="none"/>
    <path d="M28.5 3.0 L28.5 27.0 Q28.5 27.6 28.1 28.05 L28.05 28.05 Q27.6 28.45 27.0 28.5 L3.0 28.5 Q2.35 28.45 1.95 28.05 L1.9 28.05 Q1.5 27.6 1.5 27.0 L1.5 3.0 Q1.5 2.35 1.9 1.95 L1.95 1.9 Q2.35 1.5 3.0 1.5 L27.0 1.5 Q27.6 1.5 28.05 1.9 L28.1 1.95 Q28.5 2.35 28.5 3.0" fill="url(#gradient0)" fill-rule="evenodd" stroke="none"/>
  </g>
  <defs>
    <linearGradient gradientTransform="matrix(0.0, -0.0165, 0.0165, 0.0, 15.0, 15.0)" gradientUnits="userSpaceOnUse" id="gradient0" spreadMethod="pad" x1="-819.2" x2="819.2">
      <stop offset="0.0" stop-color="#e3b89b"/>
      <stop offset="0.06274509803921569" stop-color="#d18858"/>
      <stop offset="0.9137254901960784" stop-color="#a95634"/>
      <stop offset="1.0" stop-color="#3a1e12"/>
    </linearGradient>
  </defs>
</svg>
