<?xml version="1.0" encoding="UTF-8" standalone="no"?>
<svg xmlns:xlink="http://www.w3.org/1999/xlink" height="22.3px" width="12.35px" xmlns="http://www.w3.org/2000/svg">
  <g transform="matrix(1.0, 0.0, 0.0, 1.0, 0.0, 0.0)">
    <path d="M7.25 5.8 L7.25 5.75 6.7 5.45 6.25 5.05 6.2 5.0 5.1 3.9 Q4.8 3.45 3.5 2.9 2.2 2.35 1.95 1.95 L2.3 1.9 2.45 1.9 2.8 1.95 Q5.0 2.25 7.65 5.65 L7.35 5.8 7.25 5.8 M1.95 1.5 Q0.35 1.25 0.45 5.2 L0.45 5.3 0.45 5.35 0.55 9.75 0.4 10.85 0.35 10.95 0.15 10.95 Q0.0 8.7 0.0 6.3 L0.0 2.85 Q0.45 0.0 2.7 0.0 L3.3 0.3 Q2.5 0.85 1.95 1.5 M2.35 9.35 L2.3 8.8 Q2.75 5.1 4.1 5.1 5.0 5.1 5.9 6.45 L6.6 7.65 6.65 7.9 6.6 8.1 5.95 7.25 5.65 6.8 Q4.95 5.7 4.35 5.7 L4.3 5.7 Q3.65 5.75 3.3 6.55 L3.25 6.6 3.05 7.2 2.9 7.65 2.6 10.35 2.45 10.35 2.35 9.35 M11.8 14.3 L12.1 14.2 12.35 14.35 Q9.8 18.95 9.8 21.8 L9.8 21.85 9.8 21.8 9.5 21.95 Q9.05 21.75 9.05 20.4 L9.1 20.2 Q9.95 16.95 10.75 15.45 11.25 14.5 11.8 14.3 M8.6 21.9 L8.3 22.1 7.2 20.4 Q6.5 19.65 5.6 19.75 L4.75 20.0 4.55 20.1 4.1 20.0 4.3 19.95 4.35 19.95 5.15 19.6 5.75 19.4 6.35 19.2 7.2 19.35 7.7 19.65 8.05 20.0 8.15 20.1 Q8.7 20.8 8.7 21.3 L8.7 21.6 8.6 21.9 M4.2 18.4 L3.5 18.15 3.45 17.9 4.1 17.9 4.35 17.85 Q7.2 17.6 8.5 16.1 L9.65 14.75 9.7 14.75 10.35 14.1 9.35 16.05 Q8.4 17.55 7.35 18.15 L5.9 18.5 5.25 18.5 5.2 18.5 4.75 18.45 4.7 18.45 4.2 18.4" fill="#a36a6a" fill-rule="evenodd" stroke="none"/>
    <path d="M2.8 1.95 L2.45 1.9 2.3 1.9 1.95 1.95 Q2.2 2.35 3.5 2.9 4.8 3.45 5.1 3.9 L6.2 5.0 6.25 5.05 6.7 5.45 7.25 5.75 7.25 5.8 Q7.65 6.55 7.65 7.05 7.65 7.75 7.15 7.75 L6.6 7.65 5.9 6.45 Q5.0 5.1 4.1 5.1 2.75 5.1 2.3 8.8 L2.35 9.35 2.4 9.65 Q1.9 11.05 1.1 11.05 L0.4 10.85 0.55 9.75 0.7 9.35 0.55 6.55 0.45 5.3 0.45 5.2 Q0.35 1.25 1.95 1.5 L2.35 1.1 2.1 1.5 2.8 1.95 M8.6 22.1 L8.5 22.0 8.6 21.9 8.6 22.1 M5.6 19.75 L4.9 20.0 4.75 20.0 5.6 19.75 M4.3 19.95 Q3.7 19.7 3.7 18.95 L3.75 18.3 4.2 18.4 4.7 18.45 4.75 18.45 5.2 18.5 5.25 18.5 5.9 18.5 7.35 18.15 Q7.2 18.45 7.2 19.2 L7.2 19.35 6.35 19.2 5.75 19.4 5.15 19.6 4.35 19.95 4.3 19.95 M4.1 17.9 L4.25 17.85 4.35 17.85 4.1 17.9 M9.65 14.75 L9.7 14.7 9.7 14.75 9.65 14.75" fill="#fefdfd" fill-rule="evenodd" stroke="none"/>
    <path d="M4.3 5.7 L4.35 5.7 Q4.95 5.7 5.65 6.8 L5.95 7.25 5.75 7.25 4.55 6.75 Q3.9 6.75 3.5 7.15 L3.0 7.7 2.9 7.65 3.05 7.2 3.25 6.6 3.3 6.55 3.45 6.35 4.1 5.75 4.3 5.7 M9.7 14.7 L9.7 14.65 Q10.25 13.6 11.1 13.6 L11.8 14.3 Q11.25 14.5 10.75 15.45 9.95 16.95 9.1 20.2 L9.05 20.4 Q9.05 21.75 9.5 21.95 L9.8 21.8 9.8 21.85 Q9.7 22.3 9.25 22.3 L8.6 22.1 8.6 21.9 8.7 21.6 8.7 21.3 Q8.7 20.8 8.15 20.1 L8.05 20.0 7.7 19.65 7.2 19.35 7.2 19.2 Q7.2 18.45 7.35 18.15 8.4 17.55 9.35 16.05 L10.35 14.1 9.7 14.75 9.7 14.7" fill="#e0cbcb" fill-rule="evenodd" stroke="none"/>
  </g>
</svg>
